\relax 
\@writefile{toc}{\contentsline {section}{\numberline {1}Relevant Experience}{1}\protected@file@percent }
\@writefile{toc}{\contentsline {subsection}{\numberline {1.1}Lead developer for isenseproject.org}{1}\protected@file@percent }
\@writefile{toc}{\contentsline {subsection}{\numberline {1.2}ECG/Umass Lowell\unhbox \voidb@x \cleaders \hbox to.44em{\hss .\hss }\hfill \kern \z@ Spring --- Summer 2019}{1}\protected@file@percent }
\@writefile{toc}{\contentsline {subsubsection}{\numberline {1.2.1}Skills Used}{1}\protected@file@percent }
\@writefile{toc}{\contentsline {subsubsection}{\numberline {1.2.2}Roles}{1}\protected@file@percent }
\@writefile{toc}{\contentsline {subsection}{\numberline {1.3}Flight software testing Co-op for CRS2}{1}\protected@file@percent }
\@writefile{toc}{\contentsline {subsection}{\numberline {1.4}Draper\unhbox \voidb@x \cleaders \hbox to.44em{\hss .\hss }\hfill \kern \z@ Summer 2018 --- Early 2019}{1}\protected@file@percent }
\@writefile{toc}{\contentsline {subsubsection}{\numberline {1.4.1}Skills Used}{1}\protected@file@percent }
\@writefile{toc}{\contentsline {subsubsection}{\numberline {1.4.2}Roles}{1}\protected@file@percent }
\@writefile{toc}{\contentsline {subsection}{\numberline {1.5}Android developer for isenseproject.org}{1}\protected@file@percent }
\@writefile{toc}{\contentsline {subsection}{\numberline {1.6}ECG/Umass Lowell\unhbox \voidb@x \cleaders \hbox to.44em{\hss .\hss }\hfill \kern \z@ Spring 2018}{1}\protected@file@percent }
\@writefile{toc}{\contentsline {subsubsection}{\numberline {1.6.1}Skills Used}{1}\protected@file@percent }
\@writefile{toc}{\contentsline {subsubsection}{\numberline {1.6.2}Roles}{1}\protected@file@percent }
\@writefile{toc}{\contentsline {section}{\numberline {2}Relevant Projects}{1}\protected@file@percent }
\@writefile{toc}{\contentsline {subsection}{\numberline {2.1}Fedora Raspberry Pi Improvements \unhbox \voidb@x \cleaders \hbox to.44em{\hss .\hss }\hfill \kern \z@ Fall 2019 --- Current }{1}\protected@file@percent }
\@writefile{toc}{\contentsline {subsubsection}{\numberline {2.1.1}Skills Used}{1}\protected@file@percent }
\@writefile{toc}{\contentsline {subsubsection}{\numberline {2.1.2}Roles}{1}\protected@file@percent }
\@writefile{toc}{\contentsline {subsection}{\numberline {2.2}CS Club Website, Framingham State CS Club\unhbox \voidb@x \cleaders \hbox to.44em{\hss .\hss }\hfill \kern \z@ Spring 2017}{1}\protected@file@percent }
\@writefile{toc}{\contentsline {subsubsection}{\numberline {2.2.1}Skills Used}{1}\protected@file@percent }
\@writefile{toc}{\contentsline {subsubsection}{\numberline {2.2.2}Roles}{1}\protected@file@percent }
\@writefile{toc}{\contentsline {section}{\numberline {3}Education}{1}\protected@file@percent }
\@writefile{toc}{\contentsline {subsection}{\numberline {3.1}University of Massachusetts Lowell, Lowell MA\unhbox \voidb@x \cleaders \hbox to.44em{\hss .\hss }\hfill \kern \z@ expected December 2.10}{1}\protected@file@percent }
\@writefile{toc}{\contentsline {subsubsection}{\numberline {3.1.1}Honors}{1}\protected@file@percent }
\@writefile{toc}{\contentsline {subsubsection}{\numberline {3.1.2}Relevant Coursework}{1}\protected@file@percent }
\@writefile{toc}{\contentsline {subsection}{\numberline {3.2}Framingham State University, Framingham MA \unhbox \voidb@x \cleaders \hbox to.44em{\hss .\hss }\hfill \kern \z@ Sept 2016 - May 2017}{1}\protected@file@percent }
\@writefile{toc}{\contentsline {subsubsection}{\numberline {3.2.1}Clubs}{1}\protected@file@percent }
\@writefile{toc}{\contentsline {subsubsection}{\numberline {3.2.2}Relevant Coursework}{1}\protected@file@percent }
